[
{
    "fields": {
        "name": "Responsables d'alta",
        "permissions": []
    },
    "model": "auth.group",
    "pk": 1
},
{
    "fields": {
        "name": "Exportadores",
        "permissions": []
    },
    "model": "auth.group",
    "pk": 2
},
{
    "fields": {
        "ubicacio_especifica": "Sala 2 o 3",
        "provincia": "Barcelona",
        "poblacio": "Barcelona",
        "nom": "AureaSocial",
        "created_at": "2015-01-13T12:09:03.873Z",
        "updated_at": "2015-01-13T12:09:03.873Z",
        "codi_postal": "08013",
        "comarca": "Barcelon\u00e8s",
        "pais": "Catalunya",
        "adreca": "Sardenya 263"
    },
    "model": "alta_socies.ubicacio",
    "pk": 3
},
{
    "fields": {
        "ubicacio_especifica": "",
        "provincia": "Girona",
        "poblacio": "Banyoles",
        "nom": "Banyoles",
        "created_at": "2015-01-13T12:09:55.616Z",
        "updated_at": "2015-01-13T12:09:55.616Z",
        "codi_postal": "17820",
        "comarca": "Pla de l'Estany",
        "pais": "Catalunya",
        "adreca": "Muralla 26"
    },
    "model": "alta_socies.ubicacio",
    "pk": 4
},
{
    "fields": {
        "ubicacio_especifica": "Centre Cultural Cooperatiu (Cal Saumell) / Bar del costat del pas a nivell dels Ferrocarrils Catalans",
        "provincia": "Barcelona",
        "poblacio": "Vallbona d'Anoia",
        "nom": "Vallbona d'Anoia",
        "created_at": "2015-05-09T21:54:59.392Z",
        "updated_at": "2015-05-09T21:55:31.937Z",
        "codi_postal": "08785",
        "comarca": "Anoia",
        "pais": "Catalunya",
        "adreca": "Carrer major 116 Baixos"
    },
    "model": "alta_socies.ubicacio",
    "pk": 5
},
{
    "fields": {
        "ubicacio_especifica": "Ecoespai",
        "provincia": "Tarragona",
        "poblacio": "Tarragona",
        "nom": "Ecoespai Tarragona",
        "created_at": "2015-05-13T13:32:20.323Z",
        "updated_at": "2015-05-13T13:32:53.254Z",
        "codi_postal": "43001",
        "comarca": "Tarragon\u00e8s",
        "pais": "Catalunya",
        "adreca": "Carrer Merceria 12"
    },
    "model": "alta_socies.ubicacio",
    "pk": 6
},
{
    "fields": {
        "created_at": "2015-01-21T10:58:08.344Z",
        "nif": "F55162358",
        "nom_fiscal": "Interprofessionals, SCCL",
        "updated_at": "2015-01-21T10:58:08.344Z"
    },
    "model": "empreses.empresa",
    "pk": 1
},
{
    "fields": {
        "created_at": "2015-01-21T10:58:22.312Z",
        "nif": "F65343287",
        "nom_fiscal": "Xarxa Integral de Professionals i Usu\u00e0ries, SCCL",
        "updated_at": "2015-01-21T10:58:22.312Z"
    },
    "model": "empreses.empresa",
    "pk": 2
},
{
    "fields": {
        "created_at": "2015-01-21T15:18:17.401Z",
        "nif": "F58302001",
        "nom_fiscal": "AR\u00c7, Corredoria d\u2019Assegurances, SCCL",
        "updated_at": "2015-01-28T23:33:40.697Z"
    },
    "model": "empreses.empresa",
    "pk": 3
},
{
    "fields": {
        "created_at": "2015-01-21T15:30:34.347Z",
        "nif": "2222",
        "nom_fiscal": "Altres",
        "updated_at": "2015-01-21T15:30:34.347Z"
    },
    "model": "empreses.empresa",
    "pk": 4
},
{
    "fields": {},
    "model": "empreses.cooperativa",
    "pk": 1
},
{
    "fields": {},
    "model": "empreses.cooperativa",
    "pk": 2
},
{
    "fields": {},
    "model": "empreses.empresaasseguradora",
    "pk": 3
},
{
    "fields": {},
    "model": "empreses.empresaasseguradora",
    "pk": 4
},
{
    "fields": {
        "nom": "En alguna comissi\u00f3 de treball"
    },
    "model": "socies.contribuciocic",
    "pk": 1
},
{
    "fields": {
        "nom": "Puntualment en tasques organitzatives"
    },
    "model": "socies.contribuciocic",
    "pk": 2
},
{
    "fields": {
        "nom": "Econ\u00f2micament"
    },
    "model": "socies.contribuciocic",
    "pk": 3
},
{
    "fields": {
        "nom": "Administraci\u00f3 de Projectes"
    },
    "model": "socies.gruphabilitat",
    "pk": 1
},
{
    "fields": {
        "nom": "Arquitectura"
    },
    "model": "socies.gruphabilitat",
    "pk": 2
},
{
    "fields": {
        "nom": "Assegurances"
    },
    "model": "socies.gruphabilitat",
    "pk": 3
},
{
    "fields": {
        "nom": "Atenci\u00f3 al Client"
    },
    "model": "socies.gruphabilitat",
    "pk": 4
},
{
    "fields": {
        "nom": "Compres i log\u00edstica"
    },
    "model": "socies.gruphabilitat",
    "pk": 5
},
{
    "fields": {
        "nom": "Comunicaci\u00f3"
    },
    "model": "socies.gruphabilitat",
    "pk": 6
},
{
    "fields": {
        "nom": "Disseny i arts gr\u00e0fiques"
    },
    "model": "socies.gruphabilitat",
    "pk": 7
},
{
    "fields": {
        "nom": "Educaci\u00f3 i formaci\u00f3"
    },
    "model": "socies.gruphabilitat",
    "pk": 8
},
{
    "fields": {
        "nom": "Enginyeria"
    },
    "model": "socies.gruphabilitat",
    "pk": 9
},
{
    "fields": {
        "nom": "Inform\u00e0tica i telecomunicacions"
    },
    "model": "socies.gruphabilitat",
    "pk": 10
},
{
    "fields": {
        "nom": "Legal"
    },
    "model": "socies.gruphabilitat",
    "pk": 11
},
{
    "fields": {
        "nom": "Professions i oficis"
    },
    "model": "socies.gruphabilitat",
    "pk": 12
},
{
    "fields": {
        "nom": "Qualitat, producci\u00f3 i I+D"
    },
    "model": "socies.gruphabilitat",
    "pk": 13
},
{
    "fields": {
        "nom": "Recursos Humans"
    },
    "model": "socies.gruphabilitat",
    "pk": 14
},
{
    "fields": {
        "nom": "Salut"
    },
    "model": "socies.gruphabilitat",
    "pk": 15
},
{
    "fields": {
        "nom": "Art"
    },
    "model": "socies.gruphabilitat",
    "pk": 16
},
{
    "fields": {
        "nom": "Altres"
    },
    "model": "socies.gruphabilitat",
    "pk": 17
},
{
    "fields": {
        "nom": "Comptabilitat, gesti\u00f3 d'stocks",
        "grup": 1
    },
    "model": "socies.habilitat",
    "pk": 1
},
{
    "fields": {
        "nom": "Creaci\u00f3 i assessorament a cooperatives",
        "grup": 1
    },
    "model": "socies.habilitat",
    "pk": 2
},
{
    "fields": {
        "nom": "Negociaci\u00f3 i conflictes laborals",
        "grup": 1
    },
    "model": "socies.habilitat",
    "pk": 3
},
{
    "fields": {
        "nom": "Secretariat, cobraments i pagaments",
        "grup": 1
    },
    "model": "socies.habilitat",
    "pk": 4
},
{
    "fields": {
        "nom": "Arquitectura",
        "grup": 2
    },
    "model": "socies.habilitat",
    "pk": 5
},
{
    "fields": {
        "nom": "Assengurances",
        "grup": 3
    },
    "model": "socies.habilitat",
    "pk": 6
},
{
    "fields": {
        "nom": "Difusi\u00f3 i fires i esdeveniments",
        "grup": 4
    },
    "model": "socies.habilitat",
    "pk": 7
},
{
    "fields": {
        "nom": "Mailing i gesti\u00f3 telef\u00f2nica",
        "grup": 4
    },
    "model": "socies.habilitat",
    "pk": 8
},
{
    "fields": {
        "nom": "Recepci\u00f3",
        "grup": 4
    },
    "model": "socies.habilitat",
    "pk": 9
},
{
    "fields": {
        "nom": "Compres i aprovisionament",
        "grup": 5
    },
    "model": "socies.habilitat",
    "pk": 10
},
{
    "fields": {
        "nom": "Distribuci\u00f3 i log\u00edstica",
        "grup": 5
    },
    "model": "socies.habilitat",
    "pk": 11
},
{
    "fields": {
        "nom": "Gesti\u00f3 de magatzems",
        "grup": 5
    },
    "model": "socies.habilitat",
    "pk": 12
},
{
    "fields": {
        "nom": "Difusi\u00f3 d'actes",
        "grup": 6
    },
    "model": "socies.habilitat",
    "pk": 13
},
{
    "fields": {
        "nom": "Imatge corporativa",
        "grup": 6
    },
    "model": "socies.habilitat",
    "pk": 14
},
{
    "fields": {
        "nom": "Periodisme i edici\u00f3",
        "grup": 6
    },
    "model": "socies.habilitat",
    "pk": 15
},
{
    "fields": {
        "nom": "Relacions p\u00fabliques",
        "grup": 6
    },
    "model": "socies.habilitat",
    "pk": 16
},
{
    "fields": {
        "nom": "Creaci\u00f3 audiovisual",
        "grup": 7
    },
    "model": "socies.habilitat",
    "pk": 17
},
{
    "fields": {
        "nom": "Disseny gr\u00e0fic",
        "grup": 7
    },
    "model": "socies.habilitat",
    "pk": 18
},
{
    "fields": {
        "nom": "Disseny industrial",
        "grup": 7
    },
    "model": "socies.habilitat",
    "pk": 19
},
{
    "fields": {
        "nom": "Disseny web",
        "grup": 7
    },
    "model": "socies.habilitat",
    "pk": 20
},
{
    "fields": {
        "nom": "Editorial i impremta",
        "grup": 7
    },
    "model": "socies.habilitat",
    "pk": 21
},
{
    "fields": {
        "nom": "T\u00e8xtil i confecci\u00f3",
        "grup": 7
    },
    "model": "socies.habilitat",
    "pk": 22
},
{
    "fields": {
        "nom": "Educaci\u00f3 especial",
        "grup": 8
    },
    "model": "socies.habilitat",
    "pk": 23
},
{
    "fields": {
        "nom": "Educaci\u00f3 lliure",
        "grup": 8
    },
    "model": "socies.habilitat",
    "pk": 24
},
{
    "fields": {
        "nom": "Educaci\u00f3 social",
        "grup": 8
    },
    "model": "socies.habilitat",
    "pk": 25
},
{
    "fields": {
        "nom": "Gesti\u00f3 de centres educatius",
        "grup": 8
    },
    "model": "socies.habilitat",
    "pk": 26
},
{
    "fields": {
        "nom": "Pedagogia",
        "grup": 8
    },
    "model": "socies.habilitat",
    "pk": 27
},
{
    "fields": {
        "nom": "Puericultura",
        "grup": 8
    },
    "model": "socies.habilitat",
    "pk": 28
},
{
    "fields": {
        "nom": "Agr\u00f2noma",
        "grup": 9
    },
    "model": "socies.habilitat",
    "pk": 29
},
{
    "fields": {
        "nom": "Electr\u00f2nica",
        "grup": 9
    },
    "model": "socies.habilitat",
    "pk": 30
},
{
    "fields": {
        "nom": "Energies Renovables",
        "grup": 9
    },
    "model": "socies.habilitat",
    "pk": 31
},
{
    "fields": {
        "nom": "Geologia",
        "grup": 9
    },
    "model": "socies.habilitat",
    "pk": 32
},
{
    "fields": {
        "nom": "Industrial",
        "grup": 9
    },
    "model": "socies.habilitat",
    "pk": 33
},
{
    "fields": {
        "nom": "Qu\u00edmica",
        "grup": 9
    },
    "model": "socies.habilitat",
    "pk": 34
},
{
    "fields": {
        "nom": "ERP",
        "grup": 10
    },
    "model": "socies.habilitat",
    "pk": 36
},
{
    "fields": {
        "nom": "Gesti\u00f3/Creaci\u00f3 bases de dades",
        "grup": 10
    },
    "model": "socies.habilitat",
    "pk": 37
},
{
    "fields": {
        "nom": "Hardware, reds i seguretat",
        "grup": 10
    },
    "model": "socies.habilitat",
    "pk": 38
},
{
    "fields": {
        "nom": "Programaci\u00f3",
        "grup": 10
    },
    "model": "socies.habilitat",
    "pk": 39
},
{
    "fields": {
        "nom": "Sistemes",
        "grup": 10
    },
    "model": "socies.habilitat",
    "pk": 40
},
{
    "fields": {
        "nom": "Telecomunicacions",
        "grup": 10
    },
    "model": "socies.habilitat",
    "pk": 41
},
{
    "fields": {
        "nom": "Dret civil i penal",
        "grup": 11
    },
    "model": "socies.habilitat",
    "pk": 42
},
{
    "fields": {
        "nom": "Dret i empresa, laboral",
        "grup": 11
    },
    "model": "socies.habilitat",
    "pk": 43
},
{
    "fields": {
        "nom": "Dret processal",
        "grup": 11
    },
    "model": "socies.habilitat",
    "pk": 44
},
{
    "fields": {
        "nom": "Notaria i registres",
        "grup": 11
    },
    "model": "socies.habilitat",
    "pk": 45
},
{
    "fields": {
        "nom": "Agricultura, permacultura i jardineria",
        "grup": 12
    },
    "model": "socies.habilitat",
    "pk": 46
},
{
    "fields": {
        "nom": "Aire condicionat i calefacci\u00f3",
        "grup": 12
    },
    "model": "socies.habilitat",
    "pk": 47
},
{
    "fields": {
        "nom": "Artesania",
        "grup": 12
    },
    "model": "socies.habilitat",
    "pk": 48
},
{
    "fields": {
        "nom": "Confecci\u00f3",
        "grup": 12
    },
    "model": "socies.habilitat",
    "pk": 49
},
{
    "fields": {
        "nom": "Construcci\u00f3, rehabilitaci\u00f3",
        "grup": 12
    },
    "model": "socies.habilitat",
    "pk": 50
},
{
    "fields": {
        "nom": "Electricitat",
        "grup": 12
    },
    "model": "socies.habilitat",
    "pk": 51
},
{
    "fields": {
        "nom": "Est\u00e8tica i imatge",
        "grup": 12
    },
    "model": "socies.habilitat",
    "pk": 52
},
{
    "fields": {
        "nom": "Fontaneria",
        "grup": 12
    },
    "model": "socies.habilitat",
    "pk": 53
},
{
    "fields": {
        "nom": "Fusteria",
        "grup": 12
    },
    "model": "socies.habilitat",
    "pk": 54
},
{
    "fields": {
        "nom": "Pladur",
        "grup": 12
    },
    "model": "socies.habilitat",
    "pk": 55
},
{
    "fields": {
        "nom": "Neteja",
        "grup": 12
    },
    "model": "socies.habilitat",
    "pk": 56
},
{
    "fields": {
        "nom": "Traducci\u00f3, interpretaci\u00f3",
        "grup": 12
    },
    "model": "socies.habilitat",
    "pk": 57
},
{
    "fields": {
        "nom": "Transport",
        "grup": 12
    },
    "model": "socies.habilitat",
    "pk": 58
},
{
    "fields": {
        "nom": "Assessorament en mat\u00e8ria de qualitat",
        "grup": 13
    },
    "model": "socies.habilitat",
    "pk": 59
},
{
    "fields": {
        "nom": "Investigaci\u00f3 de necessitats",
        "grup": 13
    },
    "model": "socies.habilitat",
    "pk": 60
},
{
    "fields": {
        "nom": "Investigaci\u00f3 i desenvolupament",
        "grup": 13
    },
    "model": "socies.habilitat",
    "pk": 61
},
{
    "fields": {
        "nom": "Manteniment",
        "grup": 13
    },
    "model": "socies.habilitat",
    "pk": 62
},
{
    "fields": {
        "nom": "Medi Ambient",
        "grup": 13
    },
    "model": "socies.habilitat",
    "pk": 63
},
{
    "fields": {
        "nom": "Formaci\u00f3",
        "grup": 14
    },
    "model": "socies.habilitat",
    "pk": 64
},
{
    "fields": {
        "nom": "Prevenci\u00f3 de riscos",
        "grup": 14
    },
    "model": "socies.habilitat",
    "pk": 65
},
{
    "fields": {
        "nom": "Relacions laborals",
        "grup": 14
    },
    "model": "socies.habilitat",
    "pk": 66
},
{
    "fields": {
        "nom": "Atenci\u00f3 sociosanit\u00e0ria",
        "grup": 15
    },
    "model": "socies.habilitat",
    "pk": 67
},
{
    "fields": {
        "nom": "Fisioter\u00e0pia/Osteopatia",
        "grup": 15
    },
    "model": "socies.habilitat",
    "pk": 68
},
{
    "fields": {
        "nom": "Geriatria",
        "grup": 15
    },
    "model": "socies.habilitat",
    "pk": 69
},
{
    "fields": {
        "nom": "Infermeria",
        "grup": 15
    },
    "model": "socies.habilitat",
    "pk": 70
},
{
    "fields": {
        "nom": "Ter\u00e0pies",
        "grup": 15
    },
    "model": "socies.habilitat",
    "pk": 71
},
{
    "fields": {
        "nom": "Medicina alternativa",
        "grup": 15
    },
    "model": "socies.habilitat",
    "pk": 72
},
{
    "fields": {
        "nom": "Medicina especialitzada",
        "grup": 15
    },
    "model": "socies.habilitat",
    "pk": 73
},
{
    "fields": {
        "nom": "Psicologia",
        "grup": 15
    },
    "model": "socies.habilitat",
    "pk": 74
},
{
    "fields": {
        "nom": "Rehabilitaci\u00f3",
        "grup": 15
    },
    "model": "socies.habilitat",
    "pk": 75
},
{
    "fields": {
        "nom": "Belles Arts",
        "grup": 16
    },
    "model": "socies.habilitat",
    "pk": 76
},
{
    "fields": {
        "nom": "Cinema, teatre, performances",
        "grup": 16
    },
    "model": "socies.habilitat",
    "pk": 77
},
{
    "fields": {
        "nom": "Circ",
        "grup": 16
    },
    "model": "socies.habilitat",
    "pk": 78
},
{
    "fields": {
        "nom": "Erotisme",
        "grup": 16
    },
    "model": "socies.habilitat",
    "pk": 79
},
{
    "fields": {
        "nom": "Espectacles infantils",
        "grup": 16
    },
    "model": "socies.habilitat",
    "pk": 80
},
{
    "fields": {
        "nom": "Fotografia",
        "grup": 16
    },
    "model": "socies.habilitat",
    "pk": 81
},
{
    "fields": {
        "nom": "M\u00fasica",
        "grup": 16
    },
    "model": "socies.habilitat",
    "pk": 82
},
{
    "fields": {
        "nom": "Especifiqueu a \u201cdetalls sobre habilitats...\u201d",
        "grup": 17
    },
    "model": "socies.habilitat",
    "pk": 83
},
{
    "fields": {
        "nom": "Alimentaci\u00f3 b\u00e0sica",
        "firaire": false
    },
    "model": "socies.activitat",
    "pk": 1
},
{
    "fields": {
        "nom": "Salut",
        "firaire": false
    },
    "model": "socies.activitat",
    "pk": 2
},
{
    "fields": {
        "nom": "Educaci\u00f3 b\u00e0sica",
        "firaire": false
    },
    "model": "socies.activitat",
    "pk": 3
},
{
    "fields": {
        "nom": "Construcci\u00f3, rehabilitaci\u00f3, manteniment, arquitectes",
        "firaire": false
    },
    "model": "socies.activitat",
    "pk": 4
},
{
    "fields": {
        "nom": "Energia",
        "firaire": false
    },
    "model": "socies.activitat",
    "pk": 5
},
{
    "fields": {
        "nom": "Alimentaci\u00f3 complement\u00e0ria",
        "firaire": false
    },
    "model": "socies.activitat",
    "pk": 6
},
{
    "fields": {
        "nom": "Formaci\u00f3 espec\u00edfica",
        "firaire": false
    },
    "model": "socies.activitat",
    "pk": 7
},
{
    "fields": {
        "nom": "Roba",
        "firaire": false
    },
    "model": "socies.activitat",
    "pk": 8
},
{
    "fields": {
        "nom": "Cuidats de persones i serveis dom\u00e8stics",
        "firaire": false
    },
    "model": "socies.activitat",
    "pk": 9
},
{
    "fields": {
        "nom": "Professionals de la llar: electricistes, lampistes,...",
        "firaire": false
    },
    "model": "socies.activitat",
    "pk": 10
},
{
    "fields": {
        "nom": "Reparacions de m\u00e0quines i electrodom\u00e9stics",
        "firaire": false
    },
    "model": "socies.activitat",
    "pk": 11
},
{
    "fields": {
        "nom": "Eines utils i m\u00e0quines de treball",
        "firaire": false
    },
    "model": "socies.activitat",
    "pk": 12
},
{
    "fields": {
        "nom": "Art i cultura",
        "firaire": false
    },
    "model": "socies.activitat",
    "pk": 13
},
{
    "fields": {
        "nom": "Higiene i neteja",
        "firaire": false
    },
    "model": "socies.activitat",
    "pk": 14
},
{
    "fields": {
        "nom": "Inform\u00e0tica i telecomunicacions",
        "firaire": false
    },
    "model": "socies.activitat",
    "pk": 15
},
{
    "fields": {
        "nom": "Transport",
        "firaire": false
    },
    "model": "socies.activitat",
    "pk": 16
},
{
    "fields": {
        "nom": "Gesti\u00f3 d'espais naturals",
        "firaire": false
    },
    "model": "socies.activitat",
    "pk": 17
},
{
    "fields": {
        "nom": "Llibres i revistes",
        "firaire": false
    },
    "model": "socies.activitat",
    "pk": 18
},
{
    "fields": {
        "nom": "Edici\u00f3 de textos, traducci\u00f3, maquetaci\u00f3",
        "firaire": false
    },
    "model": "socies.activitat",
    "pk": 19
},
{
    "fields": {
        "nom": "Gesti\u00f3 econ\u00f2mica i jur\u00eddica",
        "firaire": false
    },
    "model": "socies.activitat",
    "pk": 20
},
{
    "fields": {
        "nom": "Serveis de cuina i restauraci\u00f3",
        "firaire": false
    },
    "model": "socies.activitat",
    "pk": 21
},
{
    "fields": {
        "nom": "Serveis i productes animals",
        "firaire": false
    },
    "model": "socies.activitat",
    "pk": 22
},
{
    "fields": {
        "nom": "Fotografia, video i so",
        "firaire": false
    },
    "model": "socies.activitat",
    "pk": 23
},
{
    "fields": {
        "nom": "Artesania no-b\u00e0sica: decoraci\u00f3, adorns,...",
        "firaire": false
    },
    "model": "socies.activitat",
    "pk": 24
},
{
    "fields": {
        "nom": "Serveis esportius",
        "firaire": false
    },
    "model": "socies.activitat",
    "pk": 25
},
{
    "fields": {
        "nom": "Psicoactives i begudes alcoh\u00f3liques",
        "firaire": false
    },
    "model": "socies.activitat",
    "pk": 26
},
{
    "fields": {
        "nom": "Turisme i oci",
        "firaire": false
    },
    "model": "socies.activitat",
    "pk": 27
},
{
    "fields": {
        "nom": "Cosm\u00e8tica",
        "firaire": false
    },
    "model": "socies.activitat",
    "pk": 28
},
{
    "fields": {
        "nom": "Serveis empresarials",
        "firaire": false
    },
    "model": "socies.activitat",
    "pk": 29
},
{
    "fields": {
        "nom": "Artesania (firaire)",
        "firaire": true
    },
    "model": "socies.activitat",
    "pk": 30
},
{
    "fields": {
        "nom": "Alimentaci\u00f3 (firaire)",
        "firaire": true
    },
    "model": "socies.activitat",
    "pk": 31
},
{
    "fields": {
        "nom": "Segona m\u00e0 (firaire)",
        "firaire": true
    },
    "model": "socies.activitat",
    "pk": 32
},
{
    "fields": {
        "nom": "Espectacle i oci (firaire)",
        "firaire": true
    },
    "model": "socies.activitat",
    "pk": 33
},
{
    "fields": {
        "nom": "Serveis (firaire)",
        "firaire": true
    },
    "model": "socies.activitat",
    "pk": 34
}
]
